idGare;idLigne;ordre;PDLFond;PDLPoint;vCreation;vMaj;vSuppression
SNCF02567;SNCF_GrandEst_U;0;0;0;106;0;0
SNCF02569;SNCF_GrandEst_U;0;0;0;106;0;0
SNCF02573;SNCF_GrandEst_U;0;0;0;106;0;0
SNCF02583;SNCF_GrandEst_U;0;0;0;106;0;0
SNCF02589;SNCF_GrandEst_U;0;0;0;106;0;0
SNCF02593;SNCF_GrandEst_U;0;0;0;106;0;0
SNCF02599;SNCF_GrandEst_U;0;0;0;106;0;0
SNCF02611;SNCF_GrandEst_U;0;0;0;106;0;0
SNCF01495;SNCF_GrandEst_U;0;0;0;106;0;0
SNCF02616;SNCF_GrandEst_U;0;0;0;106;0;0
SNCF02619;SNCF_GrandEst_U;0;0;0;106;0;0
SNCF02620;SNCF_GrandEst_U;0;0;0;106;0;0
SNCF02623;SNCF_GrandEst_U;0;0;0;106;0;0
SNCF02642;SNCF_GrandEst_U;0;0;0;106;0;0
SNCF02647;SNCF_GrandEst_U;0;0;0;106;0;0
SNCF02655;SNCF_GrandEst_U;0;0;0;106;0;0
SNCF02656;SNCF_GrandEst_U;0;0;0;106;0;0
SNCF02662;SNCF_GrandEst_U;0;0;0;106;0;0
SNCF02663;SNCF_GrandEst_U;0;0;0;106;0;0
SNCF02665;SNCF_GrandEst_U;0;0;0;106;0;0
SNCF02668;SNCF_GrandEst_U;0;0;0;106;0;0
SNCF02675;SNCF_GrandEst_U;0;0;0;106;0;0
SNCF02678;SNCF_GrandEst_U;0;0;0;106;0;0
SNCF02690;SNCF_GrandEst_U;0;0;0;106;0;0
SNCF02697;SNCF_GrandEst_U;0;0;0;106;0;0
SNCF02700;SNCF_GrandEst_U;0;0;0;106;0;0
SNCF02702;SNCF_GrandEst_U;0;0;0;106;0;0
SNCF02717;SNCF_GrandEst_U;0;0;0;106;0;0
SNCF02721;SNCF_GrandEst_U;0;0;0;106;0;0
SNCF02728;SNCF_GrandEst_U;0;0;0;106;0;0
SNCF02732;SNCF_GrandEst_U;0;0;0;106;0;0
SNCF02735;SNCF_GrandEst_U;0;0;0;106;0;0
SNCF02737;SNCF_GrandEst_U;0;0;0;106;0;0
SNCF02740;SNCF_GrandEst_U;0;0;0;106;0;0
SNCF02758;SNCF_GrandEst_U;0;0;0;106;0;0
SNCF02768;SNCF_GrandEst_U;0;0;0;106;0;0
SNCF02769;SNCF_GrandEst_U;0;0;0;106;0;0
SNCF02771;SNCF_GrandEst_U;0;0;0;106;0;0
SNCF02777;SNCF_GrandEst_U;0;0;0;106;0;0
SNCF02781;SNCF_GrandEst_U;0;0;0;106;0;0
SNCF02783;SNCF_GrandEst_U;0;0;0;106;0;0
SNCF02786;SNCF_GrandEst_U;0;0;0;106;0;0
SNCF02788;SNCF_GrandEst_U;0;0;0;106;0;0
SNCF02792;SNCF_GrandEst_U;0;0;0;106;0;0
SNCF02796;SNCF_GrandEst_U;0;0;0;106;0;0
SNCF02800;SNCF_GrandEst_U;0;0;0;106;0;0
SNCF02802;SNCF_GrandEst_U;0;0;0;106;0;0
SNCF02814;SNCF_GrandEst_U;0;0;0;106;0;0
SNCF02819;SNCF_GrandEst_U;0;0;0;106;0;0
SNCF02827;SNCF_GrandEst_U;0;0;0;106;0;0
SNCF02828;SNCF_GrandEst_U;0;0;0;106;0;0
SNCF02850;SNCF_GrandEst_U;0;0;0;106;0;0
SNCF02858;SNCF_GrandEst_U;0;0;0;106;0;0
SNCF02861;SNCF_GrandEst_U;0;0;0;106;0;0
SNCF02866;SNCF_GrandEst_U;0;0;0;106;0;0
SNCF02882;SNCF_GrandEst_U;0;0;0;106;0;0
SNCF02886;SNCF_GrandEst_U;0;0;0;106;0;0
SNCF02899;SNCF_GrandEst_U;0;0;0;106;0;0
SNCF02904;SNCF_GrandEst_U;0;0;0;106;0;0
SNCF02911;SNCF_GrandEst_U;0;0;0;106;0;0
SNCF02913;SNCF_GrandEst_U;0;0;0;106;0;0
SNCF02922;SNCF_GrandEst_U;0;0;0;106;0;0
SNCF02923;SNCF_GrandEst_U;0;0;0;106;0;0
SNCF02924;SNCF_GrandEst_U;0;0;0;106;0;0
SNCF02925;SNCF_GrandEst_U;0;0;0;106;0;0
SNCF02937;SNCF_GrandEst_U;0;0;0;106;0;0
SNCF02950;SNCF_GrandEst_U;0;0;0;106;0;0
SNCF02952;SNCF_GrandEst_U;0;0;0;106;0;0
SNCF02954;SNCF_GrandEst_U;0;0;0;106;0;0
SNCF02960;SNCF_GrandEst_U;0;0;0;106;0;0
SNCF02965;SNCF_GrandEst_U;0;0;0;106;0;0
SNCF02968;SNCF_GrandEst_U;0;0;0;106;0;0
SNCF02973;SNCF_GrandEst_U;0;0;0;106;0;0
SNCF02983;SNCF_GrandEst_U;0;0;0;106;0;0
SNCF02986;SNCF_GrandEst_U;0;0;0;106;0;0
SNCF02991;SNCF_GrandEst_U;0;0;0;106;0;0
SNCF02992;SNCF_GrandEst_U;0;0;0;106;0;0
SNCF02998;SNCF_GrandEst_U;0;0;0;106;0;0
SNCF03005;SNCF_GrandEst_U;0;0;0;106;0;0
SNCF01886;SNCF_GrandEst_U;0;0;0;106;0;0
SNCF01830;SNCF_GrandEst_U;0;0;0;106;0;0
SNCF01884;SNCF_GrandEst_U;0;0;0;106;0;0
SNCF02193;SNCF_GrandEst_U;0;0;0;106;0;0
SNCF02317;SNCF_GrandEst_U;0;0;0;106;0;0
SNCF02564;SNCF_GrandEst_U;0;0;0;106;0;0
SNCF02582;SNCF_GrandEst_U;0;0;0;106;0;0
SNCF02585;SNCF_GrandEst_U;0;0;0;106;0;0
SNCF02586;SNCF_GrandEst_U;0;0;0;106;0;0
SNCF02597;SNCF_GrandEst_U;0;0;0;106;0;0
SNCF02601;SNCF_GrandEst_U;0;0;0;106;0;0
SNCF02607;SNCF_GrandEst_U;0;0;0;106;0;0
SNCF02612;SNCF_GrandEst_U;0;0;0;106;0;0
SNCF02617;SNCF_GrandEst_U;0;0;0;106;0;0
SNCF02014;SNCF_GrandEst_U;0;0;0;106;0;0
SNCF02570;SNCF_GrandEst_U;0;0;0;106;0;0
SNCF02578;SNCF_GrandEst_U;0;0;0;106;0;0
SNCF02584;SNCF_GrandEst_U;0;0;0;106;0;0
SNCF02587;SNCF_GrandEst_U;0;0;0;106;0;0
SNCF02591;SNCF_GrandEst_U;0;0;0;106;0;0
SNCF02603;SNCF_GrandEst_U;0;0;0;106;0;0
SNCF02605;SNCF_GrandEst_U;0;0;0;106;0;0
SNCF02606;SNCF_GrandEst_U;0;0;0;106;0;0
SNCF02608;SNCF_GrandEst_U;0;0;0;106;0;0
SNCF02610;SNCF_GrandEst_U;0;0;0;106;0;0
SNCF02614;SNCF_GrandEst_U;0;0;0;106;0;0
SNCF02621;SNCF_GrandEst_U;0;0;0;106;0;0
SNCF02622;SNCF_GrandEst_U;0;0;0;106;0;0
SNCF02629;SNCF_GrandEst_U;0;0;0;106;0;0
SNCF02630;SNCF_GrandEst_U;0;0;0;106;0;0
SNCF02632;SNCF_GrandEst_U;0;0;0;106;0;0
SNCF02639;SNCF_GrandEst_U;0;0;0;106;0;0
SNCF02643;SNCF_GrandEst_U;0;0;0;106;0;0
SNCF02644;SNCF_GrandEst_U;0;0;0;106;0;0
SNCF02646;SNCF_GrandEst_U;0;0;0;106;0;0
SNCF02648;SNCF_GrandEst_U;0;0;0;106;0;0
SNCF02653;SNCF_GrandEst_U;0;0;0;106;0;0
SNCF02658;SNCF_GrandEst_U;0;0;0;106;0;0
SNCF02664;SNCF_GrandEst_U;0;0;0;106;0;0
SNCF02669;SNCF_GrandEst_U;0;0;0;106;0;0
SNCF02671;SNCF_GrandEst_U;0;0;0;106;0;0
SNCF02673;SNCF_GrandEst_U;0;0;0;106;0;0
SNCF02676;SNCF_GrandEst_U;0;0;0;106;0;0
SNCF02680;SNCF_GrandEst_U;0;0;0;106;0;0
SNCF02684;SNCF_GrandEst_U;0;0;0;106;0;0
SNCF02689;SNCF_GrandEst_U;0;0;0;106;0;0
SNCF02692;SNCF_GrandEst_U;0;0;0;106;0;0
SNCF02699;SNCF_GrandEst_U;0;0;0;106;0;0
SNCF02710;SNCF_GrandEst_U;0;0;0;106;0;0
SNCF02723;SNCF_GrandEst_U;0;0;0;106;0;0
SNCF02727;SNCF_GrandEst_U;0;0;0;106;0;0
SNCF02775;SNCF_GrandEst_U;0;0;0;106;0;0
SNCF02785;SNCF_GrandEst_U;0;0;0;106;0;0
SNCF02787;SNCF_GrandEst_U;0;0;0;106;0;0
SNCF02795;SNCF_GrandEst_U;0;0;0;106;0;0
SNCF02799;SNCF_GrandEst_U;0;0;0;106;0;0
SNCF02807;SNCF_GrandEst_U;0;0;0;106;0;0
SNCF02813;SNCF_GrandEst_U;0;0;0;106;0;0
SNCF02818;SNCF_GrandEst_U;0;0;0;106;0;0
SNCF02821;SNCF_GrandEst_U;0;0;0;106;0;0
SNCF02835;SNCF_GrandEst_U;0;0;0;106;0;0
SNCF02844;SNCF_GrandEst_U;0;0;0;106;0;0
SNCF02855;SNCF_GrandEst_U;0;0;0;106;0;0
SNCF02857;SNCF_GrandEst_U;0;0;0;106;0;0
SNCF02865;SNCF_GrandEst_U;0;0;0;106;0;0
SNCF02867;SNCF_GrandEst_U;0;0;0;106;0;0
SNCF02869;SNCF_GrandEst_U;0;0;0;106;0;0
SNCF02885;SNCF_GrandEst_U;0;0;0;106;0;0
SNCF02890;SNCF_GrandEst_U;0;0;0;106;0;0
SNCF02894;SNCF_GrandEst_U;0;0;0;106;0;0
SNCF02898;SNCF_GrandEst_U;0;0;0;106;0;0
SNCF02902;SNCF_GrandEst_U;0;0;0;106;0;0
SNCF02905;SNCF_GrandEst_U;0;0;0;106;0;0
SNCF02909;SNCF_GrandEst_U;0;0;0;106;0;0
SNCF02910;SNCF_GrandEst_U;0;0;0;106;0;0
SNCF02912;SNCF_GrandEst_U;0;0;0;106;0;0
SNCF02914;SNCF_GrandEst_U;0;0;0;106;0;0
SNCF02917;SNCF_GrandEst_U;0;0;0;106;0;0
SNCF02918;SNCF_GrandEst_U;0;0;0;106;0;0
SNCF02921;SNCF_GrandEst_U;0;0;0;106;0;0
SNCF02934;SNCF_GrandEst_U;0;0;0;106;0;0
SNCF02938;SNCF_GrandEst_U;0;0;0;106;0;0
SNCF02941;SNCF_GrandEst_U;0;0;0;106;0;0
SNCF02947;SNCF_GrandEst_U;0;0;0;106;0;0
SNCF02956;SNCF_GrandEst_U;0;0;0;106;0;0
SNCF02958;SNCF_GrandEst_U;0;0;0;106;0;0
SNCF02961;SNCF_GrandEst_U;0;0;0;106;0;0
SNCF02962;SNCF_GrandEst_U;0;0;0;106;0;0
SNCF02964;SNCF_GrandEst_U;0;0;0;106;0;0
SNCF02976;SNCF_GrandEst_U;0;0;0;106;0;0
SNCF02979;SNCF_GrandEst_U;0;0;0;106;0;0
SNCF02980;SNCF_GrandEst_U;0;0;0;106;0;0
SNCF02989;SNCF_GrandEst_U;0;0;0;106;0;0
SNCF02990;SNCF_GrandEst_U;0;0;0;106;0;0
SNCF02994;SNCF_GrandEst_U;0;0;0;106;0;0
SNCF03000;SNCF_GrandEst_U;0;0;0;106;0;0
SNCF03004;SNCF_GrandEst_U;0;0;0;106;0;0
SNCF03006;SNCF_GrandEst_U;0;0;0;106;0;0
SNCF03008;SNCF_GrandEst_U;0;0;0;106;0;0
SNCF02192;SNCF_GrandEst_U;0;0;0;106;0;0
SNCF02618;SNCF_GrandEst_U;0;0;0;106;0;0
SNCF02625;SNCF_GrandEst_U;0;0;0;106;0;0
SNCF02626;SNCF_GrandEst_U;0;0;0;106;0;0
SNCF02627;SNCF_GrandEst_U;0;0;0;106;0;0
SNCF02633;SNCF_GrandEst_U;0;0;0;106;0;0
SNCF02635;SNCF_GrandEst_U;0;0;0;106;0;0
SNCF02637;SNCF_GrandEst_U;0;0;0;106;0;0
SNCF02638;SNCF_GrandEst_U;0;0;0;106;0;0
SNCF02660;SNCF_GrandEst_U;0;0;0;106;0;0
SNCF02674;SNCF_GrandEst_U;0;0;0;106;0;0
SNCF02681;SNCF_GrandEst_U;0;0;0;106;0;0
SNCF02683;SNCF_GrandEst_U;0;0;0;106;0;0
SNCF02685;SNCF_GrandEst_U;0;0;0;106;0;0
SNCF02693;SNCF_GrandEst_U;0;0;0;106;0;0
SNCF02694;SNCF_GrandEst_U;0;0;0;106;0;0
SNCF02698;SNCF_GrandEst_U;0;0;0;106;0;0
SNCF02705;SNCF_GrandEst_U;0;0;0;106;0;0
SNCF02707;SNCF_GrandEst_U;0;0;0;106;0;0
SNCF02709;SNCF_GrandEst_U;0;0;0;106;0;0
SNCF02712;SNCF_GrandEst_U;0;0;0;106;0;0
SNCF02715;SNCF_GrandEst_U;0;0;0;106;0;0
SNCF02722;SNCF_GrandEst_U;0;0;0;106;0;0
SNCF02733;SNCF_GrandEst_U;0;0;0;106;0;0
SNCF02741;SNCF_GrandEst_U;0;0;0;106;0;0
SNCF02742;SNCF_GrandEst_U;0;0;0;106;0;0
SNCF02744;SNCF_GrandEst_U;0;0;0;106;0;0
SNCF02764;SNCF_GrandEst_U;0;0;0;106;0;0
SNCF02767;SNCF_GrandEst_U;0;0;0;106;0;0
SNCF02772;SNCF_GrandEst_U;0;0;0;106;0;0
SNCF02778;SNCF_GrandEst_U;0;0;0;106;0;0
SNCF02782;SNCF_GrandEst_U;0;0;0;106;0;0
SNCF02784;SNCF_GrandEst_U;0;0;0;106;0;0
SNCF02790;SNCF_GrandEst_U;0;0;0;106;0;0
SNCF02806;SNCF_GrandEst_U;0;0;0;106;0;0
SNCF02808;SNCF_GrandEst_U;0;0;0;106;0;0
SNCF02809;SNCF_GrandEst_U;0;0;0;106;0;0
SNCF02823;SNCF_GrandEst_U;0;0;0;106;0;0
SNCF02833;SNCF_GrandEst_U;0;0;0;106;0;0
SNCF02851;SNCF_GrandEst_U;0;0;0;106;0;0
SNCF02852;SNCF_GrandEst_U;0;0;0;106;0;0
SNCF02853;SNCF_GrandEst_U;0;0;0;106;0;0
SNCF02854;SNCF_GrandEst_U;0;0;0;106;0;0
SNCF02881;SNCF_GrandEst_U;0;0;0;106;0;0
SNCF02887;SNCF_GrandEst_U;0;0;0;106;0;0
SNCF02893;SNCF_GrandEst_U;0;0;0;106;0;0
SNCF02901;SNCF_GrandEst_U;0;0;0;106;0;0
SNCF02903;SNCF_GrandEst_U;0;0;0;106;0;0
SNCF02919;SNCF_GrandEst_U;0;0;0;106;0;0
SNCF02929;SNCF_GrandEst_U;0;0;0;106;0;0
SNCF02931;SNCF_GrandEst_U;0;0;0;106;0;0
SNCF02940;SNCF_GrandEst_U;0;0;0;106;0;0
SNCF02944;SNCF_GrandEst_U;0;0;0;106;0;0
SNCF02948;SNCF_GrandEst_U;0;0;0;106;0;0
SNCF02955;SNCF_GrandEst_U;0;0;0;106;0;0
SNCF02967;SNCF_GrandEst_U;0;0;0;106;0;0
SNCF02975;SNCF_GrandEst_U;0;0;0;106;0;0
SNCF02981;SNCF_GrandEst_U;0;0;0;106;0;0
SNCF02993;SNCF_GrandEst_U;0;0;0;106;0;0
SNCF02997;SNCF_GrandEst_U;0;0;0;106;0;0
SNCF03001;SNCF_GrandEst_U;0;0;0;106;0;0
SNCF03002;SNCF_GrandEst_U;0;0;0;106;0;0
SNCF03007;SNCF_GrandEst_U;0;0;0;106;0;0
SNCF02568;SNCF_GrandEst_U;0;0;0;106;0;0
SNCF02572;SNCF_GrandEst_U;0;0;0;106;0;0
SNCF02575;SNCF_GrandEst_U;0;0;0;106;0;0
SNCF02576;SNCF_GrandEst_U;0;0;0;106;0;0
SNCF02577;SNCF_GrandEst_U;0;0;0;106;0;0
SNCF02579;SNCF_GrandEst_U;0;0;0;106;0;0
SNCF02565;SNCF_GrandEst_U;0;0;0;106;0;0
SNCF02571;SNCF_GrandEst_U;0;0;0;106;0;0
SNCF02574;SNCF_GrandEst_U;0;0;0;106;0;0
SNCF02580;SNCF_GrandEst_U;0;0;0;106;0;0
SNCF02592;SNCF_GrandEst_U;0;0;0;106;0;0
SNCF02596;SNCF_GrandEst_U;0;0;0;106;0;0
SNCF02598;SNCF_GrandEst_U;0;0;0;106;0;0
SNCF02602;SNCF_GrandEst_U;0;0;0;106;0;0
SNCF02604;SNCF_GrandEst_U;0;0;0;106;0;0
SNCF02609;SNCF_GrandEst_U;0;0;0;106;0;0
SNCF02613;SNCF_GrandEst_U;0;0;0;106;0;0
SNCF02628;SNCF_GrandEst_U;0;0;0;106;0;0
SNCF02649;SNCF_GrandEst_U;0;0;0;106;0;0
SNCF02651;SNCF_GrandEst_U;0;0;0;106;0;0
SNCF02654;SNCF_GrandEst_U;0;0;0;106;0;0
SNCF02661;SNCF_GrandEst_U;0;0;0;106;0;0
SNCF02666;SNCF_GrandEst_U;0;0;0;106;0;0
SNCF02667;SNCF_GrandEst_U;0;0;0;106;0;0
SNCF02679;SNCF_GrandEst_U;0;0;0;106;0;0
SNCF02682;SNCF_GrandEst_U;0;0;0;106;0;0
SNCF02686;SNCF_GrandEst_U;0;0;0;106;0;0
SNCF02688;SNCF_GrandEst_U;0;0;0;106;0;0
SNCF02691;SNCF_GrandEst_U;0;0;0;106;0;0
SNCF02695;SNCF_GrandEst_U;0;0;0;106;0;0
SNCF02701;SNCF_GrandEst_U;0;0;0;106;0;0
SNCF02706;SNCF_GrandEst_U;0;0;0;106;0;0
SNCF02708;SNCF_GrandEst_U;0;0;0;106;0;0
SNCF02713;SNCF_GrandEst_U;0;0;0;106;0;0
SNCF02714;SNCF_GrandEst_U;0;0;0;106;0;0
SNCF02716;SNCF_GrandEst_U;0;0;0;106;0;0
SNCF02719;SNCF_GrandEst_U;0;0;0;106;0;0
SNCF02720;SNCF_GrandEst_U;0;0;0;106;0;0
SNCF02725;SNCF_GrandEst_U;0;0;0;106;0;0
SNCF02726;SNCF_GrandEst_U;0;0;0;106;0;0
SNCF02731;SNCF_GrandEst_U;0;0;0;106;0;0
SNCF02736;SNCF_GrandEst_U;0;0;0;106;0;0
SNCF02738;SNCF_GrandEst_U;0;0;0;106;0;0
SNCF02739;SNCF_GrandEst_U;0;0;0;106;0;0
SNCF02745;SNCF_GrandEst_U;0;0;0;106;0;0
SNCF02776;SNCF_GrandEst_U;0;0;0;106;0;0
SNCF02780;SNCF_GrandEst_U;0;0;0;106;0;0
SNCF02794;SNCF_GrandEst_U;0;0;0;106;0;0
SNCF02803;SNCF_GrandEst_U;0;0;0;106;0;0
SNCF02805;SNCF_GrandEst_U;0;0;0;106;0;0
SNCF02811;SNCF_GrandEst_U;0;0;0;106;0;0
SNCF02812;SNCF_GrandEst_U;0;0;0;106;0;0
SNCF02822;SNCF_GrandEst_U;0;0;0;106;0;0
SNCF02824;SNCF_GrandEst_U;0;0;0;106;0;0
SNCF02826;SNCF_GrandEst_U;0;0;0;106;0;0
SNCF02832;SNCF_GrandEst_U;0;0;0;106;0;0
SNCF02834;SNCF_GrandEst_U;0;0;0;106;0;0
SNCF02836;SNCF_GrandEst_U;0;0;0;106;0;0
SNCF02839;SNCF_GrandEst_U;0;0;0;106;0;0
SNCF02840;SNCF_GrandEst_U;0;0;0;106;0;0
SNCF02843;SNCF_GrandEst_U;0;0;0;106;0;0
SNCF02847;SNCF_GrandEst_U;0;0;0;106;0;0
SNCF02848;SNCF_GrandEst_U;0;0;0;106;0;0
SNCF02856;SNCF_GrandEst_U;0;0;0;106;0;0
SNCF02860;SNCF_GrandEst_U;0;0;0;106;0;0
SNCF02862;SNCF_GrandEst_U;0;0;0;106;0;0
SNCF02863;SNCF_GrandEst_U;0;0;0;106;0;0
SNCF02864;SNCF_GrandEst_U;0;0;0;106;0;0
SNCF02868;SNCF_GrandEst_U;0;0;0;106;0;0
SNCF02874;SNCF_GrandEst_U;0;0;0;106;0;0
SNCF02875;SNCF_GrandEst_U;0;0;0;106;0;0
SNCF02876;SNCF_GrandEst_U;0;0;0;106;0;0
SNCF02884;SNCF_GrandEst_U;0;0;0;106;0;0
SNCF02888;SNCF_GrandEst_U;0;0;0;106;0;0
SNCF02889;SNCF_GrandEst_U;0;0;0;106;0;0
SNCF02891;SNCF_GrandEst_U;0;0;0;106;0;0
SNCF02892;SNCF_GrandEst_U;0;0;0;106;0;0
SNCF02900;SNCF_GrandEst_U;0;0;0;106;0;0
SNCF02915;SNCF_GrandEst_U;0;0;0;106;0;0
SNCF01738;SNCF_GrandEst_U;0;0;0;106;0;0
SNCF01740;SNCF_GrandEst_U;0;0;0;106;0;0
SNCF02581;SNCF_GrandEst_U;0;0;0;106;0;0
SNCF02588;SNCF_GrandEst_U;0;0;0;106;0;0
SNCF02590;SNCF_GrandEst_U;0;0;0;106;0;0
SNCF02594;SNCF_GrandEst_U;0;0;0;106;0;0
SNCF02595;SNCF_GrandEst_U;0;0;0;106;0;0
SNCF02600;SNCF_GrandEst_U;0;0;0;106;0;0
SNCF02615;SNCF_GrandEst_U;0;0;0;106;0;0
SNCF02624;SNCF_GrandEst_U;0;0;0;106;0;0
SNCF02631;SNCF_GrandEst_U;0;0;0;106;0;0
SNCF02636;SNCF_GrandEst_U;0;0;0;106;0;0
SNCF02640;SNCF_GrandEst_U;0;0;0;106;0;0
SNCF02645;SNCF_GrandEst_U;0;0;0;106;0;0
SNCF02650;SNCF_GrandEst_U;0;0;0;106;0;0
SNCF02652;SNCF_GrandEst_U;0;0;0;106;0;0
SNCF02916;SNCF_GrandEst_U;0;0;0;106;0;0
SNCF02920;SNCF_GrandEst_U;0;0;0;106;0;0
SNCF02926;SNCF_GrandEst_U;0;0;0;106;0;0
SNCF02930;SNCF_GrandEst_U;0;0;0;106;0;0
SNCF02933;SNCF_GrandEst_U;0;0;0;106;0;0
SNCF02936;SNCF_GrandEst_U;0;0;0;106;0;0
SNCF02939;SNCF_GrandEst_U;0;0;0;106;0;0
SNCF02942;SNCF_GrandEst_U;0;0;0;106;0;0
SNCF02946;SNCF_GrandEst_U;0;0;0;106;0;0
SNCF02951;SNCF_GrandEst_U;0;0;0;106;0;0
SNCF02957;SNCF_GrandEst_U;0;0;0;106;0;0
SNCF02959;SNCF_GrandEst_U;0;0;0;106;0;0
SNCF02966;SNCF_GrandEst_U;0;0;0;106;0;0
SNCF02969;SNCF_GrandEst_U;0;0;0;106;0;0
SNCF02972;SNCF_GrandEst_U;0;0;0;106;0;0
SNCF02974;SNCF_GrandEst_U;0;0;0;106;0;0
SNCF02985;SNCF_GrandEst_U;0;0;0;106;0;0
SNCF02987;SNCF_GrandEst_U;0;0;0;106;0;0
SNCF02988;SNCF_GrandEst_U;0;0;0;106;0;0
SNCF02995;SNCF_GrandEst_U;0;0;0;106;0;0
SNCF02996;SNCF_GrandEst_U;0;0;0;106;0;0
SNCF02999;SNCF_GrandEst_U;0;0;0;106;0;0
SNCF02659;SNCF_GrandEst_U;0;0;0;106;0;0
SNCF02672;SNCF_GrandEst_U;0;0;0;106;0;0
SNCF02677;SNCF_GrandEst_U;0;0;0;106;0;0
SNCF02687;SNCF_GrandEst_U;0;0;0;106;0;0
SNCF02696;SNCF_GrandEst_U;0;0;0;106;0;0
SNCF02703;SNCF_GrandEst_U;0;0;0;106;0;0
SNCF02704;SNCF_GrandEst_U;0;0;0;106;0;0
SNCF02711;SNCF_GrandEst_U;0;0;0;106;0;0
SNCF02718;SNCF_GrandEst_U;0;0;0;106;0;0
SNCF02724;SNCF_GrandEst_U;0;0;0;106;0;0
SNCF02729;SNCF_GrandEst_U;0;0;0;106;0;0
SNCF02730;SNCF_GrandEst_U;0;0;0;106;0;0
SNCF02734;SNCF_GrandEst_U;0;0;0;106;0;0
SNCF02743;SNCF_GrandEst_U;0;0;0;106;0;0
SNCF02765;SNCF_GrandEst_U;0;0;0;106;0;0
SNCF02770;SNCF_GrandEst_U;0;0;0;106;0;0
SNCF02779;SNCF_GrandEst_U;0;0;0;106;0;0
SNCF02789;SNCF_GrandEst_U;0;0;0;106;0;0
SNCF02791;SNCF_GrandEst_U;0;0;0;106;0;0
SNCF02793;SNCF_GrandEst_U;0;0;0;106;0;0
SNCF02797;SNCF_GrandEst_U;0;0;0;106;0;0
SNCF02801;SNCF_GrandEst_U;0;0;0;106;0;0
SNCF02804;SNCF_GrandEst_U;0;0;0;106;0;0
SNCF02810;SNCF_GrandEst_U;0;0;0;106;0;0
SNCF02817;SNCF_GrandEst_U;0;0;0;106;0;0
SNCF02825;SNCF_GrandEst_U;0;0;0;106;0;0
SNCF02829;SNCF_GrandEst_U;0;0;0;106;0;0
SNCF02837;SNCF_GrandEst_U;0;0;0;106;0;0
SNCF02838;SNCF_GrandEst_U;0;0;0;106;0;0
SNCF02845;SNCF_GrandEst_U;0;0;0;106;0;0
SNCF02849;SNCF_GrandEst_U;0;0;0;106;0;0
SNCF02870;SNCF_GrandEst_U;0;0;0;106;0;0
SNCF02871;SNCF_GrandEst_U;0;0;0;106;0;0
SNCF02872;SNCF_GrandEst_U;0;0;0;106;0;0
SNCF02873;SNCF_GrandEst_U;0;0;0;106;0;0
SNCF02927;SNCF_GrandEst_U;0;0;0;106;0;0
SNCF02928;SNCF_GrandEst_U;0;0;0;106;0;0
SNCF02932;SNCF_GrandEst_U;0;0;0;106;0;0
SNCF02935;SNCF_GrandEst_U;0;0;0;106;0;0
SNCF02943;SNCF_GrandEst_U;0;0;0;106;0;0
SNCF02945;SNCF_GrandEst_U;0;0;0;106;0;0
SNCF02953;SNCF_GrandEst_U;0;0;0;106;0;0
SNCF02963;SNCF_GrandEst_U;0;0;0;106;0;0
SNCF02970;SNCF_GrandEst_U;0;0;0;106;0;0
SNCF02971;SNCF_GrandEst_U;0;0;0;106;0;0
SNCF02977;SNCF_GrandEst_U;0;0;0;106;0;0
SNCF02978;SNCF_GrandEst_U;0;0;0;106;0;0
SNCF02982;SNCF_GrandEst_U;0;0;0;106;0;0
SNCF02984;SNCF_GrandEst_U;0;0;0;106;0;0
