<?xml version="1.0" encoding="UTF-8" standalone="no"?>
<svg
   xmlns:dc="http://purl.org/dc/elements/1.1/"
   xmlns:cc="http://creativecommons.org/ns#"
   xmlns:rdf="http://www.w3.org/1999/02/22-rdf-syntax-ns#"
   xmlns:svg="http://www.w3.org/2000/svg"
   xmlns="http://www.w3.org/2000/svg"
   xmlns:sodipodi="http://sodipodi.sourceforge.net/DTD/sodipodi-0.dtd"
   xmlns:inkscape="http://www.inkscape.org/namespaces/inkscape"
   height="47.773827mm"
   width="47.773827mm"
   viewBox="0 0 169.27734 169.27734"
   id="svg2"
   version="1.1"
   inkscape:version="0.91 r13725"
   sodipodi:docname="brut_lignes.svg">
  <sodipodi:namedview
     pagecolor="#ffffff"
     bordercolor="#666666"
     borderopacity="1"
     objecttolerance="10"
     gridtolerance="10"
     guidetolerance="25"
     inkscape:pageopacity="0"
     inkscape:pageshadow="2"
     inkscape:window-width="1920"
     inkscape:window-height="1016"
     id="namedview3406"
     showgrid="false"
     inkscape:zoom="3.2224433"
     inkscape:cx="137.50694"
     inkscape:cy="110.75083"
     inkscape:window-x="0"
     inkscape:window-y="27"
     inkscape:window-maximized="1"
     inkscape:current-layer="g4575"
     inkscape:snap-perpendicular="false"
     inkscape:snap-tangential="false">
    <sodipodi:guide
       position="35.416598,119.18675"
       orientation="-50.090583,0"
       id="guide3209" />
    <sodipodi:guide
       position="133.86074,119.18675"
       orientation="-50.090583,0"
       id="guide3213" />
    <sodipodi:guide
       position="84.046229,169.24203"
       orientation="0,64.759022"
       id="guide3217" />
    <sodipodi:guide
       position="86.090248,118.26361"
       orientation="0,70.710678"
       id="guide3221" />
  </sodipodi:namedview>
  <defs
     id="defs8" />
  <metadata
     id="metadata4">
    <rdf:RDF>
      <cc:Work
         rdf:about="">
        <dc:format>image/svg+xml</dc:format>
        <dc:type
           rdf:resource="http://purl.org/dc/dcmitype/StillImage" />
        <dc:title></dc:title>
      </cc:Work>
    </rdf:RDF>
  </metadata>
  <g
     inkscape:groupmode="layer"
     id="layer1"
     inkscape:label="Bas"
     style="display:inline">
    <g
       inkscape:groupmode="layer"
       id="g4509"
       inkscape:label="Bas branche centre petit gauche"
       style="display:none">
      <rect
         style="display:inline;fill:#000000;fill-opacity:1;stroke:#000000;stroke-width:1;stroke-linecap:round;stroke-linejoin:miter;stroke-miterlimit:4;stroke-dasharray:none;stroke-dashoffset:0;stroke-opacity:1"
         id="rect4511"
         width="12.729363"
         height="12.729363"
         x="78.273987"
         y="156.04797"
         rx="0"
         ry="0" />
      <path
         style="fill:none;fill-rule:evenodd;stroke:#000000;stroke-width:5;stroke-linecap:butt;stroke-linejoin:miter;stroke-miterlimit:4;stroke-dasharray:none;stroke-opacity:1"
         d="m 35.416565,51.325872 c 0,0 0.021,1.034571 0.021,4.504661 0,17.89467 13.61114,19.02559 25.474303,19.02559 11.86316,0 23.77431,0.64582 23.77431,29.384007 0,19.21415 -0.048,63.11822 -0.048,63.11822"
         id="path4513"
         inkscape:connector-curvature="0"
         sodipodi:nodetypes="csssc" />
    </g>
    <g
       style="display:inline"
       inkscape:label="Bas branche centre petit droite"
       id="g4575"
       inkscape:groupmode="layer">
      <rect
         ry="0"
         rx="0"
         y="156.04797"
         x="78.273987"
         height="12.729363"
         width="12.729363"
         id="rect4577"
         style="display:inline;fill:#000000;fill-opacity:1;stroke:#000000;stroke-width:1;stroke-linecap:round;stroke-linejoin:miter;stroke-miterlimit:4;stroke-dasharray:none;stroke-dashoffset:0;stroke-opacity:1" />
      <path
         sodipodi:nodetypes="csssc"
         inkscape:connector-curvature="0"
         id="path4579"
         d="m 133.5436,51.325872 c 0,0 -0.021,1.034571 -0.021,4.504661 0,17.89467 -13.61114,19.02559 -25.4743,19.02559 -11.863163,0 -23.774313,0.64582 -23.774313,29.384007 0,19.21415 0.048,63.11822 0.048,63.11822"
         style="fill:none;fill-rule:evenodd;stroke:#000000;stroke-width:5;stroke-linecap:butt;stroke-linejoin:miter;stroke-miterlimit:4;stroke-dasharray:none;stroke-opacity:1" />
    </g>
    <g
       inkscape:groupmode="layer"
       id="layer5"
       inkscape:label="Bas gauche"
       style="display:inline">
      <path
         sodipodi:nodetypes="cc"
         inkscape:connector-curvature="0"
         id="path3218"
         d="m 35.416599,49.67663 0,119.60071"
         style="display:inline;fill:none;fill-rule:evenodd;stroke:#000000;stroke-width:25;stroke-linecap:butt;stroke-linejoin:miter;stroke-miterlimit:4;stroke-dasharray:none;stroke-opacity:1" />
    </g>
    <g
       inkscape:groupmode="layer"
       id="layer6"
       inkscape:label="Bas centre"
       style="display:none">
      <path
         style="display:inline;fill:none;fill-rule:evenodd;stroke:#000000;stroke-width:25;stroke-linecap:butt;stroke-linejoin:miter;stroke-miterlimit:4;stroke-dasharray:none;stroke-opacity:1"
         d="m 84.638669,49.67663 0,119.60071"
         id="path3221-3"
         inkscape:connector-curvature="0"
         sodipodi:nodetypes="cc" />
    </g>
    <g
       inkscape:groupmode="layer"
       id="layer7"
       inkscape:label="Bas droite"
       style="display:inline">
      <path
         style="display:inline;fill:none;fill-rule:evenodd;stroke:#000000;stroke-width:25;stroke-linecap:butt;stroke-linejoin:miter;stroke-miterlimit:4;stroke-dasharray:none;stroke-opacity:1"
         d="m 133.86074,49.67663 0,119.60071"
         id="path3220"
         inkscape:connector-curvature="0"
         sodipodi:nodetypes="cc" />
    </g>
    <g
       inkscape:groupmode="layer"
       id="layer4"
       inkscape:label="Bas branche"
       style="display:none">
      <path
         style="display:inline;fill:none;fill-rule:evenodd;stroke:#000000;stroke-width:25;stroke-linecap:butt;stroke-linejoin:miter;stroke-miterlimit:4;stroke-dasharray:none;stroke-opacity:1"
         d="M 35.405284,169.56155 35.51002,85.398455 c 0.04279,-34.384729 25.051636,-34.488848 50.196698,-34.488848 24.077012,0 48.154022,0.104119 48.133112,34.500548 -1.7e-4,0.278528 -0.003,83.821245 -0.003,83.821245"
         id="path3205"
         inkscape:connector-curvature="0"
         sodipodi:nodetypes="csssc" />
    </g>
    <g
       inkscape:groupmode="layer"
       id="g3456"
       inkscape:label="Bas branche droite"
       style="display:none">
      <path
         style="fill:none;fill-rule:evenodd;stroke:#000000;stroke-width:25;stroke-linecap:butt;stroke-linejoin:miter;stroke-miterlimit:4;stroke-dasharray:none;stroke-opacity:1"
         d="m 84.639103,63.353501 c 0,0 0.02101,8.962498 0.02101,12.432585 0,17.894666 13.611141,19.025594 25.474307,19.025594 11.86316,0 23.77431,0.645814 23.77431,29.38401 0,19.21414 -0.048,45.20644 -0.048,45.20644"
         id="path3246"
         inkscape:connector-curvature="0"
         sodipodi:nodetypes="csssc" />
    </g>
    <g
       style="display:none"
       inkscape:label="Bas branche gauche"
       id="g3340"
       inkscape:groupmode="layer">
      <path
         sodipodi:nodetypes="csssc"
         inkscape:connector-curvature="0"
         id="path3342"
         d="m 84.686212,63.353501 c 0,0 -0.021,8.962498 -0.021,12.432585 0,17.894666 -13.61114,19.025594 -25.4743,19.025594 -11.863163,0 -23.774313,0.645814 -23.774313,29.38401 0,19.21414 0.048,45.20644 0.048,45.20644"
         style="fill:none;fill-rule:evenodd;stroke:#000000;stroke-width:25;stroke-linecap:butt;stroke-linejoin:miter;stroke-miterlimit:4;stroke-dasharray:none;stroke-opacity:1" />
    </g>
  </g>
  <g
     inkscape:groupmode="layer"
     id="layer2"
     inkscape:label="Haut"
     style="display:inline">
    <g
       inkscape:groupmode="layer"
       id="layer8"
       inkscape:label="Haut gauche"
       style="display:inline">
      <path
         id="path3222"
         d="M 35.416599,50.090583 35.416599,0"
         style="display:inline;fill:none;fill-rule:evenodd;stroke:#000000;stroke-width:25;stroke-linecap:butt;stroke-linejoin:miter;stroke-miterlimit:4;stroke-dasharray:none;stroke-opacity:1"
         inkscape:connector-curvature="0" />
    </g>
    <g
       inkscape:groupmode="layer"
       id="layer9"
       inkscape:label="Haut centre"
       style="display:none">
      <path
         inkscape:connector-curvature="0"
         style="display:inline;fill:none;fill-rule:evenodd;stroke:#000000;stroke-width:25;stroke-linecap:butt;stroke-linejoin:miter;stroke-miterlimit:4;stroke-dasharray:none;stroke-opacity:1"
         d="m 84.638669,63.341856 0,-27.896822 0,-35.445034"
         id="path3221-6"
         sodipodi:nodetypes="ccc" />
    </g>
    <g
       style="display:none"
       inkscape:label="Haut centre petit"
       id="g3331"
       inkscape:groupmode="layer">
      <path
         sodipodi:nodetypes="ccc"
         id="path3333"
         d="m 84.638669,63.341856 0,-27.896822 0,-35.445034"
         style="display:inline;fill:none;fill-rule:evenodd;stroke:#000000;stroke-width:5;stroke-linecap:butt;stroke-linejoin:miter;stroke-miterlimit:4;stroke-dasharray:none;stroke-opacity:1"
         inkscape:connector-curvature="0" />
      <rect
         style="fill:#000000;fill-opacity:1;stroke:#000000;stroke-width:1;stroke-linecap:round;stroke-linejoin:miter;stroke-miterlimit:4;stroke-dasharray:none;stroke-dashoffset:0;stroke-opacity:1"
         id="rect3335"
         width="12.729363"
         height="12.729363"
         x="78.273987"
         y="0.5"
         rx="0"
         ry="0" />
    </g>
    <g
       inkscape:groupmode="layer"
       id="layer10"
       inkscape:label="Haut droite"
       style="display:none">
      <path
         id="path3224"
         d="M 133.86074,50.090583 133.86074,0"
         style="display:inline;fill:none;fill-rule:evenodd;stroke:#000000;stroke-width:25;stroke-linecap:butt;stroke-linejoin:miter;stroke-miterlimit:4;stroke-dasharray:none;stroke-opacity:1"
         inkscape:connector-curvature="0" />
    </g>
    <g
       inkscape:groupmode="layer"
       id="layer3"
       inkscape:label="Haut branche"
       style="display:none">
      <path
         sodipodi:nodetypes="csssc"
         inkscape:connector-curvature="0"
         id="path3513"
         d="M 35.405284,0.03270384 35.333243,32.719 c -0.04032,18.294726 25.228413,18.190607 50.373475,18.190607 24.077012,0 47.956332,0.104119 47.956332,-17.825354 0,-0.278528 0.17356,-33.02814902 0.17356,-33.02814902"
         style="display:inline;fill:none;fill-rule:evenodd;stroke:#000000;stroke-width:25;stroke-linecap:butt;stroke-linejoin:miter;stroke-miterlimit:4;stroke-dasharray:none;stroke-opacity:1" />
    </g>
    <g
       inkscape:groupmode="layer"
       id="g3244"
       inkscape:label="Haut branche gauche"
       style="display:none">
      <path
         style="fill:none;fill-rule:evenodd;stroke:#000000;stroke-width:25;stroke-linecap:butt;stroke-linejoin:miter;stroke-miterlimit:4;stroke-dasharray:none;stroke-opacity:1"
         d="m 84.591127,57.39593 c 0,0 0.021,-8.9625 0.021,-12.43259 0,-17.89467 13.61114,-19.02559 25.474303,-19.02559 11.86316,0 23.77431,-0.64582 23.77431,-29.38401 0,-19.214144 -0.048,-25.258751 -0.048,-25.258751"
         id="path3247"
         inkscape:connector-curvature="0"
         sodipodi:nodetypes="csssc" />
    </g>
    <g
       style="display:none"
       inkscape:label="Haut branche centre petit"
       id="g3356"
       inkscape:groupmode="layer">
      <rect
         ry="0"
         rx="0"
         y="0.5"
         x="78.273987"
         height="12.729363"
         width="12.729363"
         id="rect3276"
         style="display:inline;fill:#000000;fill-opacity:1;stroke:#000000;stroke-width:1;stroke-linecap:round;stroke-linejoin:miter;stroke-miterlimit:4;stroke-dasharray:none;stroke-dashoffset:0;stroke-opacity:1" />
      <path
         sodipodi:nodetypes="csssc"
         inkscape:connector-curvature="0"
         id="path3358"
         d="m 35.416565,49.468001 c 0,0 0.021,-1.034571 0.021,-4.504661 0,-17.89467 13.61114,-19.02559 25.474303,-19.02559 11.86316,0 23.77431,-0.64582 23.77431,-29.38401 0,-19.214144 -0.048,-25.258751 -0.048,-25.258751"
         style="fill:none;fill-rule:evenodd;stroke:#000000;stroke-width:5;stroke-linecap:butt;stroke-linejoin:miter;stroke-miterlimit:4;stroke-dasharray:none;stroke-opacity:1" />
    </g>
    <g
       style="display:none"
       inkscape:label="Haut branche droite"
       id="g3308"
       inkscape:groupmode="layer">
      <path
         sodipodi:nodetypes="csssc"
         inkscape:connector-curvature="0"
         id="path3310"
         d="m 84.686212,57.39593 c 0,0 -0.021,-8.9625 -0.021,-12.43259 0,-17.89467 -13.61114,-19.02559 -25.4743,-19.02559 -11.863163,0 -23.774313,-0.64582 -23.774313,-29.38401 0,-19.214144 0.048,-25.258751 0.048,-25.258751"
         style="fill:none;fill-rule:evenodd;stroke:#000000;stroke-width:25;stroke-linecap:butt;stroke-linejoin:miter;stroke-miterlimit:4;stroke-dasharray:none;stroke-opacity:1" />
    </g>
  </g>
  <g
     inkscape:groupmode="layer"
     id="layer11"
     inkscape:label="Point"
     style="display:none">
    <g
       inkscape:groupmode="layer"
       id="layer12"
       inkscape:label="Point centre"
       style="display:none">
      <circle
         r="35.416599"
         cy="84.638672"
         cx="84.638672"
         id="path3223"
         style="fill:#000000;fill-opacity:1;stroke:none;stroke-width:17.5;stroke-linecap:round;stroke-linejoin:round;stroke-miterlimit:4;stroke-dasharray:none;stroke-dashoffset:0;stroke-opacity:1" />
    </g>
    <g
       inkscape:groupmode="layer"
       id="layer13"
       inkscape:label="Point gauche"
       style="display:inline">
      <path
         style="fill:#000000;fill-opacity:1;stroke:none;stroke-width:17.5;stroke-linecap:round;stroke-linejoin:round;stroke-miterlimit:4;stroke-dasharray:none;stroke-dashoffset:0;stroke-opacity:1"
         id="circle3603"
         sodipodi:type="arc"
         sodipodi:cx="-84.638672"
         sodipodi:cy="84.638672"
         sodipodi:rx="35.416599"
         sodipodi:ry="35.416599"
         sodipodi:start="0"
         sodipodi:end="3.1415927"
         d="m -49.222073,84.638672 a 35.416599,35.416599 0 0 1 -17.7083,30.671678 35.416599,35.416599 0 0 1 -35.416597,0 35.416599,35.416599 0 0 1 -17.7083,-30.67168 l 35.416598,2e-6 z"
         transform="matrix(0,-1,1,0,0,0)" />
      <path
         style="fill:none;fill-rule:evenodd;stroke:#000000;stroke-width:4;stroke-linecap:round;stroke-linejoin:miter;stroke-miterlimit:4;stroke-dasharray:none;stroke-opacity:1"
         d="m 56.75,51.013726 c 0,66.138614 0,66.138614 0,66.138614 L 44.831973,96.509712"
         id="path3608"
         inkscape:connector-curvature="0" />
    </g>
    <g
       inkscape:label="Point droite"
       id="g3629"
       inkscape:groupmode="layer"
       style="display:none">
      <path
         transform="matrix(0,-1,-1,0,0,0)"
         d="m -49.222073,-84.055267 a 35.416599,35.416599 0 0 1 -17.7083,30.671675 35.416599,35.416599 0 0 1 -35.416597,-10e-7 35.416599,35.416599 0 0 1 -17.7083,-30.671676 l 35.416598,2e-6 z"
         sodipodi:end="3.1415927"
         sodipodi:start="0"
         sodipodi:ry="35.416599"
         sodipodi:rx="35.416599"
         sodipodi:cy="-84.055267"
         sodipodi:cx="-84.638672"
         sodipodi:type="arc"
         id="path3631"
         style="fill:#000000;fill-opacity:1;stroke:none;stroke-width:17.5;stroke-linecap:round;stroke-linejoin:round;stroke-miterlimit:4;stroke-dasharray:none;stroke-dashoffset:0;stroke-opacity:1" />
      <path
         inkscape:connector-curvature="0"
         id="path3633"
         d="m 108.81783,122.58796 c 0,-66.138617 0,-66.138617 0,-66.138617 l 11.91803,20.642628"
         style="fill:none;fill-rule:evenodd;stroke:#000000;stroke-width:4;stroke-linecap:round;stroke-linejoin:miter;stroke-miterlimit:4;stroke-dasharray:none;stroke-opacity:1" />
    </g>
  </g>
  <g
     style="display:none"
     inkscape:label="Point gauche"
     id="g3872"
     inkscape:groupmode="layer">
    <g
       style="display:none"
       inkscape:label="Point centre"
       id="g3874"
       inkscape:groupmode="layer">
      <circle
         style="fill:#000000;fill-opacity:1;stroke:none;stroke-width:17.5;stroke-linecap:round;stroke-linejoin:round;stroke-miterlimit:4;stroke-dasharray:none;stroke-dashoffset:0;stroke-opacity:1"
         id="circle3876"
         cx="36.638672"
         cy="84.638672"
         r="35.416599" />
    </g>
    <g
       style="display:none"
       inkscape:label="Point gauche"
       id="g3878"
       inkscape:groupmode="layer">
      <path
         transform="matrix(0,-1,1,0,0,0)"
         d="m -49.222073,36.638672 a 35.416599,35.416599 0 0 1 -17.7083,30.671675 35.416599,35.416599 0 0 1 -35.416597,-10e-7 35.416599,35.416599 0 0 1 -17.7083,-30.671676 l 35.416598,2e-6 z"
         sodipodi:end="3.1415927"
         sodipodi:start="0"
         sodipodi:ry="35.416599"
         sodipodi:rx="35.416599"
         sodipodi:cy="36.638672"
         sodipodi:cx="-84.638672"
         sodipodi:type="arc"
         id="path3880"
         style="fill:#000000;fill-opacity:1;stroke:none;stroke-width:17.5;stroke-linecap:round;stroke-linejoin:round;stroke-miterlimit:4;stroke-dasharray:none;stroke-dashoffset:0;stroke-opacity:1" />
      <path
         inkscape:connector-curvature="0"
         id="path3882"
         d="m 16.75,51.013726 c 0,66.138614 0,66.138614 0,66.138614 L 4.831973,96.509712"
         style="fill:none;fill-rule:evenodd;stroke:#000000;stroke-width:4;stroke-linecap:round;stroke-linejoin:miter;stroke-miterlimit:4;stroke-dasharray:none;stroke-opacity:1" />
    </g>
    <g
       style="display:none"
       inkscape:groupmode="layer"
       id="g3884"
       inkscape:label="Point droite">
      <path
         style="fill:#000000;fill-opacity:1;stroke:none;stroke-width:17.5;stroke-linecap:round;stroke-linejoin:round;stroke-miterlimit:4;stroke-dasharray:none;stroke-dashoffset:0;stroke-opacity:1"
         id="path3886"
         sodipodi:type="arc"
         sodipodi:cx="-84.638672"
         sodipodi:cy="-36.055267"
         sodipodi:rx="35.416599"
         sodipodi:ry="35.416599"
         sodipodi:start="0"
         sodipodi:end="3.1415927"
         d="m -49.222073,-36.055267 a 35.416599,35.416599 0 0 1 -17.7083,30.6716746 35.416599,35.416599 0 0 1 -35.416597,-8e-7 35.416599,35.416599 0 0 1 -17.7083,-30.6716758 l 35.416598,2e-6 z"
         transform="matrix(0,-1,-1,0,0,0)" />
      <path
         style="fill:none;fill-rule:evenodd;stroke:#000000;stroke-width:4;stroke-linecap:round;stroke-linejoin:miter;stroke-miterlimit:4;stroke-dasharray:none;stroke-opacity:1"
         d="m 60.81783,122.58796 c 0,-66.138617 0,-66.138617 0,-66.138617 l 11.91803,20.642628"
         id="path3888"
         inkscape:connector-curvature="0" />
    </g>
  </g>
  <g
     inkscape:label="Point droite"
     id="g3791"
     inkscape:groupmode="layer"
     style="display:none">
    <g
       style="display:none"
       inkscape:label="Point centre"
       id="g3793"
       inkscape:groupmode="layer">
      <circle
         style="fill:#000000;fill-opacity:1;stroke:none;stroke-width:17.5;stroke-linecap:round;stroke-linejoin:round;stroke-miterlimit:4;stroke-dasharray:none;stroke-dashoffset:0;stroke-opacity:1"
         id="circle3795"
         cx="133.86073"
         cy="84.638672"
         r="35.416599" />
    </g>
    <g
       style="display:none"
       inkscape:label="Point gauche"
       id="g3797"
       inkscape:groupmode="layer">
      <path
         transform="matrix(0,-1,1,0,0,0)"
         d="m -49.222073,135.06296 a 35.416599,35.416599 0 0 1 -17.7083,30.67167 35.416599,35.416599 0 0 1 -35.416597,0 35.416599,35.416599 0 0 1 -17.7083,-30.67167 l 35.416598,0 z"
         sodipodi:end="3.1415927"
         sodipodi:start="0"
         sodipodi:ry="35.416599"
         sodipodi:rx="35.416599"
         sodipodi:cy="135.06296"
         sodipodi:cx="-84.638672"
         sodipodi:type="arc"
         id="path3799"
         style="fill:#000000;fill-opacity:1;stroke:none;stroke-width:17.5;stroke-linecap:round;stroke-linejoin:round;stroke-miterlimit:4;stroke-dasharray:none;stroke-dashoffset:0;stroke-opacity:1" />
      <path
         inkscape:connector-curvature="0"
         id="path3801"
         d="m 109.17429,51.013726 c 0,66.138614 0,66.138614 0,66.138614 L 97.256262,96.509712"
         style="fill:none;fill-rule:evenodd;stroke:#000000;stroke-width:4;stroke-linecap:round;stroke-linejoin:miter;stroke-miterlimit:4;stroke-dasharray:none;stroke-opacity:1" />
    </g>
    <g
       style="display:none"
       inkscape:groupmode="layer"
       id="g3803"
       inkscape:label="Point droite">
      <path
         style="fill:#000000;fill-opacity:1;stroke:none;stroke-width:17.5;stroke-linecap:round;stroke-linejoin:round;stroke-miterlimit:4;stroke-dasharray:none;stroke-dashoffset:0;stroke-opacity:1"
         id="path3805"
         sodipodi:type="arc"
         sodipodi:cx="-84.638672"
         sodipodi:cy="-128.05527"
         sodipodi:rx="35.416599"
         sodipodi:ry="35.416599"
         sodipodi:start="0"
         sodipodi:end="3.1415927"
         d="m -49.222073,-128.05527 a 35.416599,35.416599 0 0 1 -17.7083,30.671678 35.416599,35.416599 0 0 1 -35.416597,-1e-6 35.416599,35.416599 0 0 1 -17.7083,-30.671677 l 35.416598,0 z"
         transform="matrix(0,-1,-1,0,0,0)" />
      <path
         style="fill:none;fill-rule:evenodd;stroke:#000000;stroke-width:4;stroke-linecap:round;stroke-linejoin:miter;stroke-miterlimit:4;stroke-dasharray:none;stroke-opacity:1"
         d="m 152.81783,122.58796 c 0,-66.138617 0,-66.138617 0,-66.138617 l 11.91803,20.642628"
         id="path3807"
         inkscape:connector-curvature="0" />
    </g>
  </g>
</svg>
