idGare;idLigne;ordre;PDLFond;PDLPoint;vCreation;vMaj;vSuppression
SNCF00062;SNCF_AuvergneRA_U;0;0;0;106;0;0
SNCF00150;SNCF_AuvergneRA_U;0;0;0;106;0;0
SNCF00164;SNCF_AuvergneRA_U;0;0;0;106;0;0
SNCF00166;SNCF_AuvergneRA_U;0;0;0;106;0;0
SNCF00169;SNCF_AuvergneRA_U;0;0;0;106;0;0
SNCF00173;SNCF_AuvergneRA_U;0;0;0;106;0;0
SNCF00310;SNCF_AuvergneRA_U;0;0;0;106;0;0
SNCF00315;SNCF_AuvergneRA_U;0;0;0;106;0;0
SNCF00316;SNCF_AuvergneRA_U;0;0;0;106;0;0
SNCF00318;SNCF_AuvergneRA_U;0;0;0;106;0;0
SNCF00321;SNCF_AuvergneRA_U;0;0;0;106;0;0
SNCF00330;SNCF_AuvergneRA_U;0;0;0;106;0;0
SNCF00334;SNCF_AuvergneRA_U;0;0;0;106;0;0
SNCF00343;SNCF_AuvergneRA_U;0;0;0;106;0;0
SNCF00348;SNCF_AuvergneRA_U;0;0;0;106;0;0
SNCF00360;SNCF_AuvergneRA_U;0;0;0;106;0;0
SNCF00395;SNCF_AuvergneRA_U;0;0;0;106;0;0
SNCF00400;SNCF_AuvergneRA_U;0;0;0;106;0;0
SNCF00407;SNCF_AuvergneRA_U;0;0;0;106;0;0
SNCF00411;SNCF_AuvergneRA_U;0;0;0;106;0;0
SNCF00416;SNCF_AuvergneRA_U;0;0;0;106;0;0
SNCF00424;SNCF_AuvergneRA_U;0;0;0;106;0;0
SNCF00426;SNCF_AuvergneRA_U;0;0;0;106;0;0
SNCF00435;SNCF_AuvergneRA_U;0;0;0;106;0;0
SNCF00441;SNCF_AuvergneRA_U;0;0;0;106;0;0
SNCF00442;SNCF_AuvergneRA_U;0;0;0;106;0;0
SNCF00456;SNCF_AuvergneRA_U;0;0;0;106;0;0
SNCF00462;SNCF_AuvergneRA_U;0;0;0;106;0;0
SNCF00463;SNCF_AuvergneRA_U;0;0;0;106;0;0
SNCF00471;SNCF_AuvergneRA_U;0;0;0;106;0;0
SNCF00479;SNCF_AuvergneRA_U;0;0;0;106;0;0
SNCF00481;SNCF_AuvergneRA_U;0;0;0;106;0;0
SNCF01430;SNCF_AuvergneRA_U;0;0;0;106;0;0
SNCF00064;SNCF_AuvergneRA_U;0;0;0;106;0;0
SNCF00168;SNCF_AuvergneRA_U;0;0;0;106;0;0
SNCF00174;SNCF_AuvergneRA_U;0;0;0;106;0;0
SNCF00175;SNCF_AuvergneRA_U;0;0;0;106;0;0
SNCF00176;SNCF_AuvergneRA_U;0;0;0;106;0;0
SNCF00306;SNCF_AuvergneRA_U;0;0;0;106;0;0
SNCF00329;SNCF_AuvergneRA_U;0;0;0;106;0;0
SNCF00331;SNCF_AuvergneRA_U;0;0;0;106;0;0
SNCF00336;SNCF_AuvergneRA_U;0;0;0;106;0;0
SNCF00339;SNCF_AuvergneRA_U;0;0;0;106;0;0
SNCF00340;SNCF_AuvergneRA_U;0;0;0;106;0;0
SNCF00345;SNCF_AuvergneRA_U;0;0;0;106;0;0
SNCF00350;SNCF_AuvergneRA_U;0;0;0;106;0;0
SNCF00351;SNCF_AuvergneRA_U;0;0;0;106;0;0
SNCF00357;SNCF_AuvergneRA_U;0;0;0;106;0;0
SNCF00358;SNCF_AuvergneRA_U;0;0;0;106;0;0
SNCF00363;SNCF_AuvergneRA_U;0;0;0;106;0;0
SNCF00368;SNCF_AuvergneRA_U;0;0;0;106;0;0
SNCF00371;SNCF_AuvergneRA_U;0;0;0;106;0;0
SNCF00375;SNCF_AuvergneRA_U;0;0;0;106;0;0
SNCF00377;SNCF_AuvergneRA_U;0;0;0;106;0;0
SNCF00378;SNCF_AuvergneRA_U;0;0;0;106;0;0
SNCF00383;SNCF_AuvergneRA_U;0;0;0;106;0;0
SNCF00388;SNCF_AuvergneRA_U;0;0;0;106;0;0
SNCF00396;SNCF_AuvergneRA_U;0;0;0;106;0;0
SNCF00405;SNCF_AuvergneRA_U;0;0;0;106;0;0
SNCF00408;SNCF_AuvergneRA_U;0;0;0;106;0;0
SNCF00410;SNCF_AuvergneRA_U;0;0;0;106;0;0
SNCF00412;SNCF_AuvergneRA_U;0;0;0;106;0;0
SNCF00421;SNCF_AuvergneRA_U;0;0;0;106;0;0
SNCF00429;SNCF_AuvergneRA_U;0;0;0;106;0;0
SNCF00434;SNCF_AuvergneRA_U;0;0;0;106;0;0
SNCF00437;SNCF_AuvergneRA_U;0;0;0;106;0;0
SNCF00451;SNCF_AuvergneRA_U;0;0;0;106;0;0
SNCF00455;SNCF_AuvergneRA_U;0;0;0;106;0;0
SNCF00460;SNCF_AuvergneRA_U;0;0;0;106;0;0
SNCF00467;SNCF_AuvergneRA_U;0;0;0;106;0;0
SNCF00472;SNCF_AuvergneRA_U;0;0;0;106;0;0
SNCF00477;SNCF_AuvergneRA_U;0;0;0;106;0;0
SNCF00484;SNCF_AuvergneRA_U;0;0;0;106;0;0
SNCF00509;SNCF_AuvergneRA_U;0;0;0;106;0;0
SNCF00527;SNCF_AuvergneRA_U;0;0;0;106;0;0
SNCF00533;SNCF_AuvergneRA_U;0;0;0;106;0;0
SNCF00535;SNCF_AuvergneRA_U;0;0;0;106;0;0
SNCF00541;SNCF_AuvergneRA_U;0;0;0;106;0;0
SNCF00547;SNCF_AuvergneRA_U;0;0;0;106;0;0
SNCF00548;SNCF_AuvergneRA_U;0;0;0;106;0;0
SNCF00552;SNCF_AuvergneRA_U;0;0;0;106;0;0
SNCF03079;SNCF_AuvergneRA_U;0;0;0;106;0;0
SNCF01887;SNCF_AuvergneRA_U;0;0;0;106;0;0
SNCF00482;SNCF_AuvergneRA_U;0;0;0;106;0;0
SNCF00483;SNCF_AuvergneRA_U;0;0;0;106;0;0
SNCF00485;SNCF_AuvergneRA_U;0;0;0;106;0;0
SNCF00487;SNCF_AuvergneRA_U;0;0;0;106;0;0
SNCF00489;SNCF_AuvergneRA_U;0;0;0;106;0;0
SNCF00494;SNCF_AuvergneRA_U;0;0;0;106;0;0
SNCF00508;SNCF_AuvergneRA_U;0;0;0;106;0;0
SNCF00513;SNCF_AuvergneRA_U;0;0;0;106;0;0
SNCF00515;SNCF_AuvergneRA_U;0;0;0;106;0;0
SNCF00519;SNCF_AuvergneRA_U;0;0;0;106;0;0
SNCF00534;SNCF_AuvergneRA_U;0;0;0;106;0;0
SNCF00542;SNCF_AuvergneRA_U;0;0;0;106;0;0
SNCF00560;SNCF_AuvergneRA_U;0;0;0;106;0;0
SNCF00563;SNCF_AuvergneRA_U;0;0;0;106;0;0
SNCF00566;SNCF_AuvergneRA_U;0;0;0;106;0;0
SNCF00571;SNCF_AuvergneRA_U;0;0;0;106;0;0
SNCF00574;SNCF_AuvergneRA_U;0;0;0;106;0;0
SNCF00576;SNCF_AuvergneRA_U;0;0;0;106;0;0
SNCF00580;SNCF_AuvergneRA_U;0;0;0;106;0;0
SNCF00581;SNCF_AuvergneRA_U;0;0;0;106;0;0
SNCF00585;SNCF_AuvergneRA_U;0;0;0;106;0;0
SNCF00592;SNCF_AuvergneRA_U;0;0;0;106;0;0
SNCF00702;SNCF_AuvergneRA_U;0;0;0;106;0;0
SNCF00903;SNCF_AuvergneRA_U;0;0;0;106;0;0
SNCF00918;SNCF_AuvergneRA_U;0;0;0;106;0;0
SNCF00926;SNCF_AuvergneRA_U;0;0;0;106;0;0
SNCF00931;SNCF_AuvergneRA_U;0;0;0;106;0;0
SNCF00934;SNCF_AuvergneRA_U;0;0;0;106;0;0
SNCF00564;SNCF_AuvergneRA_U;0;0;0;106;0;0
SNCF00584;SNCF_AuvergneRA_U;0;0;0;106;0;0
SNCF00705;SNCF_AuvergneRA_U;0;0;0;106;0;0
SNCF00896;SNCF_AuvergneRA_U;0;0;0;106;0;0
SNCF00900;SNCF_AuvergneRA_U;0;0;0;106;0;0
SNCF00902;SNCF_AuvergneRA_U;0;0;0;106;0;0
SNCF00911;SNCF_AuvergneRA_U;0;0;0;106;0;0
SNCF00917;SNCF_AuvergneRA_U;0;0;0;106;0;0
SNCF00927;SNCF_AuvergneRA_U;0;0;0;106;0;0
SNCF00932;SNCF_AuvergneRA_U;0;0;0;106;0;0
SNCF00933;SNCF_AuvergneRA_U;0;0;0;106;0;0
SNCF01773;SNCF_AuvergneRA_U;0;0;0;106;0;0
SNCF01829;SNCF_AuvergneRA_U;0;0;0;106;0;0
SNCF02204;SNCF_AuvergneRA_U;0;0;0;106;0;0
SNCF02670;SNCF_AuvergneRA_U;0;0;0;106;0;0
SNCF02425;SNCF_AuvergneRA_U;0;0;0;106;0;0
SNCF00151;SNCF_AuvergneRA_U;0;0;0;106;0;0
SNCF00165;SNCF_AuvergneRA_U;0;0;0;106;0;0
SNCF00172;SNCF_AuvergneRA_U;0;0;0;106;0;0
SNCF00177;SNCF_AuvergneRA_U;0;0;0;106;0;0
SNCF00179;SNCF_AuvergneRA_U;0;0;0;106;0;0
SNCF00305;SNCF_AuvergneRA_U;0;0;0;106;0;0
SNCF00308;SNCF_AuvergneRA_U;0;0;0;106;0;0
SNCF00309;SNCF_AuvergneRA_U;0;0;0;106;0;0
SNCF00325;SNCF_AuvergneRA_U;0;0;0;106;0;0
SNCF00327;SNCF_AuvergneRA_U;0;0;0;106;0;0
SNCF00328;SNCF_AuvergneRA_U;0;0;0;106;0;0
SNCF00333;SNCF_AuvergneRA_U;0;0;0;106;0;0
SNCF00338;SNCF_AuvergneRA_U;0;0;0;106;0;0
SNCF00341;SNCF_AuvergneRA_U;0;0;0;106;0;0
SNCF00344;SNCF_AuvergneRA_U;0;0;0;106;0;0
SNCF00346;SNCF_AuvergneRA_U;0;0;0;106;0;0
SNCF00347;SNCF_AuvergneRA_U;0;0;0;106;0;0
SNCF00349;SNCF_AuvergneRA_U;0;0;0;106;0;0
SNCF00359;SNCF_AuvergneRA_U;0;0;0;106;0;0
SNCF00361;SNCF_AuvergneRA_U;0;0;0;106;0;0
SNCF00369;SNCF_AuvergneRA_U;0;0;0;106;0;0
SNCF00370;SNCF_AuvergneRA_U;0;0;0;106;0;0
SNCF00376;SNCF_AuvergneRA_U;0;0;0;106;0;0
SNCF00380;SNCF_AuvergneRA_U;0;0;0;106;0;0
SNCF00381;SNCF_AuvergneRA_U;0;0;0;106;0;0
SNCF00384;SNCF_AuvergneRA_U;0;0;0;106;0;0
SNCF00390;SNCF_AuvergneRA_U;0;0;0;106;0;0
SNCF00391;SNCF_AuvergneRA_U;0;0;0;106;0;0
SNCF00394;SNCF_AuvergneRA_U;0;0;0;106;0;0
SNCF00403;SNCF_AuvergneRA_U;0;0;0;106;0;0
SNCF00404;SNCF_AuvergneRA_U;0;0;0;106;0;0
SNCF00413;SNCF_AuvergneRA_U;0;0;0;106;0;0
SNCF00419;SNCF_AuvergneRA_U;0;0;0;106;0;0
SNCF00420;SNCF_AuvergneRA_U;0;0;0;106;0;0
SNCF00422;SNCF_AuvergneRA_U;0;0;0;106;0;0
SNCF00427;SNCF_AuvergneRA_U;0;0;0;106;0;0
SNCF00428;SNCF_AuvergneRA_U;0;0;0;106;0;0
SNCF00436;SNCF_AuvergneRA_U;0;0;0;106;0;0
SNCF00443;SNCF_AuvergneRA_U;0;0;0;106;0;0
SNCF00445;SNCF_AuvergneRA_U;0;0;0;106;0;0
SNCF00452;SNCF_AuvergneRA_U;0;0;0;106;0;0
SNCF00453;SNCF_AuvergneRA_U;0;0;0;106;0;0
SNCF00458;SNCF_AuvergneRA_U;0;0;0;106;0;0
SNCF00461;SNCF_AuvergneRA_U;0;0;0;106;0;0
SNCF00464;SNCF_AuvergneRA_U;0;0;0;106;0;0
SNCF00465;SNCF_AuvergneRA_U;0;0;0;106;0;0
SNCF00468;SNCF_AuvergneRA_U;0;0;0;106;0;0
SNCF00470;SNCF_AuvergneRA_U;0;0;0;106;0;0
SNCF00486;SNCF_AuvergneRA_U;0;0;0;106;0;0
SNCF00488;SNCF_AuvergneRA_U;0;0;0;106;0;0
SNCF00490;SNCF_AuvergneRA_U;0;0;0;106;0;0
SNCF00491;SNCF_AuvergneRA_U;0;0;0;106;0;0
SNCF00511;SNCF_AuvergneRA_U;0;0;0;106;0;0
SNCF00516;SNCF_AuvergneRA_U;0;0;0;106;0;0
SNCF00523;SNCF_AuvergneRA_U;0;0;0;106;0;0
SNCF00524;SNCF_AuvergneRA_U;0;0;0;106;0;0
SNCF00525;SNCF_AuvergneRA_U;0;0;0;106;0;0
SNCF00530;SNCF_AuvergneRA_U;0;0;0;106;0;0
SNCF03083;SNCF_AuvergneRA_U;0;0;0;106;0;0
SNCF00152;SNCF_AuvergneRA_U;0;0;0;106;0;0
SNCF00162;SNCF_AuvergneRA_U;0;0;0;106;0;0
SNCF00167;SNCF_AuvergneRA_U;0;0;0;106;0;0
SNCF00171;SNCF_AuvergneRA_U;0;0;0;106;0;0
SNCF00178;SNCF_AuvergneRA_U;0;0;0;106;0;0
SNCF00180;SNCF_AuvergneRA_U;0;0;0;106;0;0
SNCF00181;SNCF_AuvergneRA_U;0;0;0;106;0;0
SNCF00301;SNCF_AuvergneRA_U;0;0;0;106;0;0
SNCF00302;SNCF_AuvergneRA_U;0;0;0;106;0;0
SNCF00303;SNCF_AuvergneRA_U;0;0;0;106;0;0
SNCF00314;SNCF_AuvergneRA_U;0;0;0;106;0;0
SNCF00319;SNCF_AuvergneRA_U;0;0;0;106;0;0
SNCF00322;SNCF_AuvergneRA_U;0;0;0;106;0;0
SNCF00324;SNCF_AuvergneRA_U;0;0;0;106;0;0
SNCF00326;SNCF_AuvergneRA_U;0;0;0;106;0;0
SNCF00335;SNCF_AuvergneRA_U;0;0;0;106;0;0
SNCF00337;SNCF_AuvergneRA_U;0;0;0;106;0;0
SNCF00342;SNCF_AuvergneRA_U;0;0;0;106;0;0
SNCF00353;SNCF_AuvergneRA_U;0;0;0;106;0;0
SNCF00355;SNCF_AuvergneRA_U;0;0;0;106;0;0
SNCF00364;SNCF_AuvergneRA_U;0;0;0;106;0;0
SNCF00374;SNCF_AuvergneRA_U;0;0;0;106;0;0
SNCF00379;SNCF_AuvergneRA_U;0;0;0;106;0;0
SNCF00382;SNCF_AuvergneRA_U;0;0;0;106;0;0
SNCF00389;SNCF_AuvergneRA_U;0;0;0;106;0;0
SNCF00397;SNCF_AuvergneRA_U;0;0;0;106;0;0
SNCF00398;SNCF_AuvergneRA_U;0;0;0;106;0;0
SNCF00399;SNCF_AuvergneRA_U;0;0;0;106;0;0
SNCF00409;SNCF_AuvergneRA_U;0;0;0;106;0;0
SNCF00417;SNCF_AuvergneRA_U;0;0;0;106;0;0
SNCF00438;SNCF_AuvergneRA_U;0;0;0;106;0;0
SNCF00440;SNCF_AuvergneRA_U;0;0;0;106;0;0
SNCF00444;SNCF_AuvergneRA_U;0;0;0;106;0;0
SNCF00448;SNCF_AuvergneRA_U;0;0;0;106;0;0
SNCF00450;SNCF_AuvergneRA_U;0;0;0;106;0;0
SNCF00454;SNCF_AuvergneRA_U;0;0;0;106;0;0
SNCF00148;SNCF_AuvergneRA_U;0;0;0;106;0;0
SNCF00170;SNCF_AuvergneRA_U;0;0;0;106;0;0
SNCF00304;SNCF_AuvergneRA_U;0;0;0;106;0;0
SNCF00307;SNCF_AuvergneRA_U;0;0;0;106;0;0
SNCF00311;SNCF_AuvergneRA_U;0;0;0;106;0;0
SNCF00313;SNCF_AuvergneRA_U;0;0;0;106;0;0
SNCF00317;SNCF_AuvergneRA_U;0;0;0;106;0;0
SNCF00323;SNCF_AuvergneRA_U;0;0;0;106;0;0
SNCF00332;SNCF_AuvergneRA_U;0;0;0;106;0;0
SNCF00354;SNCF_AuvergneRA_U;0;0;0;106;0;0
SNCF00356;SNCF_AuvergneRA_U;0;0;0;106;0;0
SNCF00362;SNCF_AuvergneRA_U;0;0;0;106;0;0
SNCF00365;SNCF_AuvergneRA_U;0;0;0;106;0;0
SNCF00366;SNCF_AuvergneRA_U;0;0;0;106;0;0
SNCF00367;SNCF_AuvergneRA_U;0;0;0;106;0;0
SNCF00385;SNCF_AuvergneRA_U;0;0;0;106;0;0
SNCF00386;SNCF_AuvergneRA_U;0;0;0;106;0;0
SNCF00392;SNCF_AuvergneRA_U;0;0;0;106;0;0
SNCF00401;SNCF_AuvergneRA_U;0;0;0;106;0;0
SNCF00406;SNCF_AuvergneRA_U;0;0;0;106;0;0
SNCF00414;SNCF_AuvergneRA_U;0;0;0;106;0;0
SNCF00415;SNCF_AuvergneRA_U;0;0;0;106;0;0
SNCF00418;SNCF_AuvergneRA_U;0;0;0;106;0;0
SNCF00423;SNCF_AuvergneRA_U;0;0;0;106;0;0
SNCF00425;SNCF_AuvergneRA_U;0;0;0;106;0;0
SNCF00439;SNCF_AuvergneRA_U;0;0;0;106;0;0
SNCF00446;SNCF_AuvergneRA_U;0;0;0;106;0;0
SNCF00447;SNCF_AuvergneRA_U;0;0;0;106;0;0
SNCF00449;SNCF_AuvergneRA_U;0;0;0;106;0;0
SNCF00459;SNCF_AuvergneRA_U;0;0;0;106;0;0
SNCF00466;SNCF_AuvergneRA_U;0;0;0;106;0;0
SNCF00473;SNCF_AuvergneRA_U;0;0;0;106;0;0
SNCF00480;SNCF_AuvergneRA_U;0;0;0;106;0;0
SNCF00495;SNCF_AuvergneRA_U;0;0;0;106;0;0
SNCF00497;SNCF_AuvergneRA_U;0;0;0;106;0;0
SNCF00510;SNCF_AuvergneRA_U;0;0;0;106;0;0
SNCF00514;SNCF_AuvergneRA_U;0;0;0;106;0;0
SNCF00517;SNCF_AuvergneRA_U;0;0;0;106;0;0
SNCF00526;SNCF_AuvergneRA_U;0;0;0;106;0;0
SNCF00528;SNCF_AuvergneRA_U;0;0;0;106;0;0
SNCF00529;SNCF_AuvergneRA_U;0;0;0;106;0;0
SNCF00536;SNCF_AuvergneRA_U;0;0;0;106;0;0
SNCF00538;SNCF_AuvergneRA_U;0;0;0;106;0;0
SNCF00539;SNCF_AuvergneRA_U;0;0;0;106;0;0
SNCF00543;SNCF_AuvergneRA_U;0;0;0;106;0;0
SNCF00549;SNCF_AuvergneRA_U;0;0;0;106;0;0
SNCF00553;SNCF_AuvergneRA_U;0;0;0;106;0;0
SNCF00562;SNCF_AuvergneRA_U;0;0;0;106;0;0
SNCF00569;SNCF_AuvergneRA_U;0;0;0;106;0;0
SNCF00575;SNCF_AuvergneRA_U;0;0;0;106;0;0
SNCF00579;SNCF_AuvergneRA_U;0;0;0;106;0;0
SNCF00582;SNCF_AuvergneRA_U;0;0;0;106;0;0
SNCF00588;SNCF_AuvergneRA_U;0;0;0;106;0;0
SNCF00546;SNCF_AuvergneRA_U;0;0;0;106;0;0
SNCF00551;SNCF_AuvergneRA_U;0;0;0;106;0;0
SNCF00555;SNCF_AuvergneRA_U;0;0;0;106;0;0
SNCF00559;SNCF_AuvergneRA_U;0;0;0;106;0;0
SNCF00561;SNCF_AuvergneRA_U;0;0;0;106;0;0
SNCF00565;SNCF_AuvergneRA_U;0;0;0;106;0;0
SNCF00567;SNCF_AuvergneRA_U;0;0;0;106;0;0
SNCF00568;SNCF_AuvergneRA_U;0;0;0;106;0;0
SNCF00572;SNCF_AuvergneRA_U;0;0;0;106;0;0
SNCF00573;SNCF_AuvergneRA_U;0;0;0;106;0;0
SNCF00577;SNCF_AuvergneRA_U;0;0;0;106;0;0
SNCF00578;SNCF_AuvergneRA_U;0;0;0;106;0;0
SNCF00586;SNCF_AuvergneRA_U;0;0;0;106;0;0
SNCF00587;SNCF_AuvergneRA_U;0;0;0;106;0;0
SNCF00590;SNCF_AuvergneRA_U;0;0;0;106;0;0
SNCF00594;SNCF_AuvergneRA_U;0;0;0;106;0;0
SNCF00703;SNCF_AuvergneRA_U;0;0;0;106;0;0
SNCF00897;SNCF_AuvergneRA_U;0;0;0;106;0;0
SNCF00899;SNCF_AuvergneRA_U;0;0;0;106;0;0
SNCF00901;SNCF_AuvergneRA_U;0;0;0;106;0;0
SNCF00904;SNCF_AuvergneRA_U;0;0;0;106;0;0
SNCF00905;SNCF_AuvergneRA_U;0;0;0;106;0;0
SNCF00912;SNCF_AuvergneRA_U;0;0;0;106;0;0
SNCF00913;SNCF_AuvergneRA_U;0;0;0;106;0;0
SNCF00919;SNCF_AuvergneRA_U;0;0;0;106;0;0
SNCF00921;SNCF_AuvergneRA_U;0;0;0;106;0;0
SNCF00922;SNCF_AuvergneRA_U;0;0;0;106;0;0
SNCF00457;SNCF_AuvergneRA_U;0;0;0;106;0;0
SNCF00474;SNCF_AuvergneRA_U;0;0;0;106;0;0
SNCF00475;SNCF_AuvergneRA_U;0;0;0;106;0;0
SNCF00476;SNCF_AuvergneRA_U;0;0;0;106;0;0
SNCF00478;SNCF_AuvergneRA_U;0;0;0;106;0;0
SNCF00492;SNCF_AuvergneRA_U;0;0;0;106;0;0
SNCF00493;SNCF_AuvergneRA_U;0;0;0;106;0;0
SNCF00512;SNCF_AuvergneRA_U;0;0;0;106;0;0
SNCF00518;SNCF_AuvergneRA_U;0;0;0;106;0;0
SNCF00521;SNCF_AuvergneRA_U;0;0;0;106;0;0
SNCF00522;SNCF_AuvergneRA_U;0;0;0;106;0;0
SNCF00532;SNCF_AuvergneRA_U;0;0;0;106;0;0
SNCF00537;SNCF_AuvergneRA_U;0;0;0;106;0;0
SNCF00540;SNCF_AuvergneRA_U;0;0;0;106;0;0
SNCF00545;SNCF_AuvergneRA_U;0;0;0;106;0;0
SNCF00550;SNCF_AuvergneRA_U;0;0;0;106;0;0
SNCF00556;SNCF_AuvergneRA_U;0;0;0;106;0;0
SNCF00558;SNCF_AuvergneRA_U;0;0;0;106;0;0
SNCF00570;SNCF_AuvergneRA_U;0;0;0;106;0;0
SNCF00583;SNCF_AuvergneRA_U;0;0;0;106;0;0
SNCF00589;SNCF_AuvergneRA_U;0;0;0;106;0;0
SNCF00591;SNCF_AuvergneRA_U;0;0;0;106;0;0
SNCF00593;SNCF_AuvergneRA_U;0;0;0;106;0;0
SNCF00699;SNCF_AuvergneRA_U;0;0;0;106;0;0
SNCF00908;SNCF_AuvergneRA_U;0;0;0;106;0;0
SNCF00910;SNCF_AuvergneRA_U;0;0;0;106;0;0
SNCF00914;SNCF_AuvergneRA_U;0;0;0;106;0;0
SNCF00923;SNCF_AuvergneRA_U;0;0;0;106;0;0
SNCF03003;SNCF_AuvergneRA_U;0;0;0;106;0;0
SNCF00704;SNCF_AuvergneRA_U;0;0;0;106;0;0
SNCF00898;SNCF_AuvergneRA_U;0;0;0;106;0;0
SNCF00907;SNCF_AuvergneRA_U;0;0;0;106;0;0
SNCF00916;SNCF_AuvergneRA_U;0;0;0;106;0;0
SNCF00924;SNCF_AuvergneRA_U;0;0;0;106;0;0
SNCF00930;SNCF_AuvergneRA_U;0;0;0;106;0;0
SNCF01429;SNCF_AuvergneRA_U;0;0;0;106;0;0
